…
```r
fisheries_tidy_focused <- fisheries_tidy %>% 
  select(country, isscaap_taxonomic_group, asfis_species_name, asfis_species_number, year, catch) 
fisheries_tidy_focused
```

```
## # A tibble: 376,771 x 6
##    country isscaap_taxonomic_g~ asfis_species_na~ asfis_species_num~  year catch
##    <fct>   <chr>                <chr>             <fct>              <dbl> <dbl>
##  1 Albania Sharks, rays, chima~ Squatinidae       10903XXXXX          1995    NA
##  2 Albania Sharks, rays, chima~ Squatinidae       10903XXXXX          1996    53
##  3 Albania Sharks, rays, chima~ Squatinidae       10903XXXXX          1997    20
##  4 Albania Sharks, rays, chima~ Squatinidae       10903XXXXX          1998    31
##  5 Albania Sharks, rays, chima~ Squatinidae       10903XXXXX          1999    30
##  6 Albania Sharks, rays, chima~ Squatinidae       10903XXXXX          2000    30
##  7 Albania Sharks, rays, chima~ Squatinidae       10903XXXXX          2001    16
##  8 Albania Sharks, rays, chima~ Squatinidae       10903XXXXX          2002    79
##  9 Albania Sharks, rays, chima~ Squatinidae       10903XXXXX          2003     1
## 10 Albania Sharks, rays, chima~ Squatinidae       10903XXXXX          2004     4
## # ... with 376,761 more rows
```
…
6. Which country had the largest overall catch in the year 2000?
**China had the largest overall catch in 2000.**

```r
fisheries_tidy_focused %>% 
  filter(year == 2000) %>% 
  group_by(country) %>% 
  summarize(catch_total = sum(catch, na.rm=T)) %>% 
  arrange(desc(catch_total))
```

```
## # A tibble: 193 x 2
##    country                  catch_total
##    <fct>                          <dbl>
##  1 China                          25899
##  2 Russian Federation             12181
##  3 United States of America       11762
##  4 Japan                           8510
##  5 Indonesia                       8341
##  6 Peru                            7443
##  7 Chile                           6906
##  8 India                           6351
##  9 Thailand                        6243
## 10 Korea, Republic of              6124
## # ... with 183 more rows
```

7. Which country caught the most sardines (_Sardina pilchardus_) between the years 1990-2000?
**Morocco caught the most sardines between 1990-2000.**

```r
fisheries_tidy_focused %>% 
  filter(asfis_species_name == "Sardina pilchardus") %>% 
  filter(between(year, 1990, 2000)) %>% 
  group_by(country) %>% 
  summarize(catch_sum = sum(catch, na.rm=T)) %>% 
  arrange(desc(catch_sum))
```

```
## # A tibble: 37 x 2
##    country               catch_sum
##    <fct>                     <dbl>
##  1 Morocco                    7470
##  2 Spain                      3507
##  3 Russian Federation         1639
##  4 Ukraine                    1030
##  5 France                      966
##  6 Portugal                    818
##  7 Greece                      528
##  8 Italy                       507
##  9 Serbia and Montenegro       478
## 10 Denmark                     477
## # ... with 27 more rows
```

8. Which five countries caught the most cephalopods between 2008-2012?
**China, The Republic of Korea, Peru, Japan, Chile**

```r
fisheries_tidy_focused %>% 
  filter(isscaap_taxonomic_group == "Squids, cuttlefishes, octopuses") %>% 
  filter(between(year, 2008, 2012)) %>% 
  group_by(country) %>% 
  summarize(total_catch = sum(catch, na.rm=T)) %>% 
  arrange(desc(total_catch))
```

```
## # A tibble: 122 x 2
##    country                  total_catch
##    <fct>                          <dbl>
##  1 China                           8349
##  2 Korea, Republic of              3480
##  3 Peru                            3422
##  4 Japan                           3248
##  5 Chile                           2775
##  6 United States of America        2417
##  7 Indonesia                       1622
##  8 Taiwan Province of China        1394
##  9 Spain                           1147
## 10 France                          1138
## # ... with 112 more rows
```

9. Which species had the highest catch total between 2008-2012? (hint: Osteichthyes is not a species)
**Theragra chalcogramma had the highest catch total between 2008-2012.** 

```r
fisheries_tidy_focused %>% 
  filter(between(year, 2008, 2012)) %>% 
  group_by(asfis_species_name) %>% 
  summarise(total_catch = sum(catch, na.rm=T)) %>% 
  arrange(desc(total_catch))
```

```
## # A tibble: 1,472 x 2
##    asfis_species_name    total_catch
##    <chr>                       <dbl>
##  1 Osteichthyes               107808
##  2 Theragra chalcogramma       41075
##  3 Engraulis ringens           35523
##  4 Katsuwonus pelamis          32153
##  5 Trichiurus lepturus         30400
##  6 Clupea harengus             28527
##  7 Thunnus albacares           20119
##  8 Scomber japonicus           14723
##  9 Gadus morhua                13253
## 10 Thunnus alalunga            12019
## # ... with 1,462 more rows
```

10. Use the data to do at least one analysis of your choice.

```r
# Which species of fish did the US catch the most in total?

fisheries_tidy_focused %>% 
  filter(country == "United States of America") %>% 
  group_by(asfis_species_name) %>% 
  summarize(total_catch = sum(catch, na.rm=T)) %>% 
  arrange(desc(total_catch))
```

```
## # A tibble: 373 x 2
##    asfis_species_name       total_catch
##    <chr>                          <dbl>
##  1 Theragra chalcogramma         134724
##  2 Brevoortia patronus            32931
##  3 Brevoortia tyrannus            31517
##  4 Spisula solidissima            24610
##  5 Crassostrea virginica          19891
##  6 Arctica islandica              19305
##  7 Gadus macrocephalus            16013
##  8 Oncorhynchus gorbuscha         14463
##  9 Placopecten magellanicus       13957
## 10 Oncorhynchus nerka             13115
## # ... with 363 more rows
```
…
