…
```r
deserts %>% 
  group_by(genus, species) %>% 
  summarise(observations = n()) %>% 
  arrange(desc(observations))
```

```
## `summarise()` has grouped output by 'genus'. You can override using the `.groups` argument.
```

```
## # A tibble: 48 x 3
## # Groups:   genus [26]
##    genus           species      observations
##    <chr>           <chr>               <int>
##  1 Dipodomys       merriami            10596
##  2 Chaetodipus     penicillatus         3123
##  3 Dipodomys       ordii                3027
##  4 Chaetodipus     baileyi              2891
##  5 Reithrodontomys megalotis            2609
##  6 Dipodomys       spectabilis          2504
##  7 Onychomys       torridus             2249
##  8 Perognathus     flavus               1597
##  9 Peromyscus      eremicus             1299
## 10 Neotoma         albigula             1252
## # ... with 38 more rows
```
…
```r
deserts %>% 
  filter(weight != 'NA') %>% 
  group_by(genus, species) %>% 
  summarise(mean_weight = mean(weight)) %>% 
  arrange(desc(mean_weight))
```

```
## `summarise()` has grouped output by 'genus'. You can override using the `.groups` argument.
```

```
## # A tibble: 25 x 3
## # Groups:   genus [10]
##    genus        species      mean_weight
##    <chr>        <chr>              <dbl>
##  1 Neotoma      albigula           159. 
##  2 Dipodomys    spectabilis        120. 
##  3 Spermophilus spilosoma           93.5
##  4 Sigmodon     hispidus            73.1
##  5 Sigmodon     fulviventer         58.9
##  6 Sigmodon     ochrognathus        55.4
##  7 Dipodomys    ordii               48.9
##  8 Dipodomys    merriami            43.2
##  9 Chaetodipus  baileyi             31.7
## 10 Onychomys    leucogaster         31.6
## # ... with 15 more rows
```

**Neotoma albigula and Dipodomys spectabilis have the highest average weight**

```r
deserts2 <- deserts %>% 
  mutate(weight_to_hindfoot_ratio = (weight/hindfoot_length))
deserts2
```

```
## # A tibble: 34,786 x 14
##    record_id month   day  year plot_id species_id sex   hindfoot_length weight
##        <dbl> <dbl> <dbl> <dbl>   <dbl> <chr>      <chr>           <dbl>  <dbl>
##  1         1     7    16  1977       2 NL         M                  32     NA
##  2         2     7    16  1977       3 NL         M                  33     NA
##  3         3     7    16  1977       2 DM         F                  37     NA
##  4         4     7    16  1977       7 DM         M                  36     NA
##  5         5     7    16  1977       3 DM         M                  35     NA
##  6         6     7    16  1977       1 PF         M                  14     NA
##  7         7     7    16  1977       2 PE         F                  NA     NA
##  8         8     7    16  1977       1 DM         M                  37     NA
##  9         9     7    16  1977       1 DM         F                  34     NA
## 10        10     7    16  1977       6 PF         F                  20     NA
## # ... with 34,776 more rows, and 5 more variables: genus <chr>, species <chr>,
## #   taxa <chr>, plot_type <chr>, weight_to_hindfoot_ratio <dbl>
```
…
