…
```r
#tabyl(superhero_info, alignment)
```

2. Notice that we have some neutral superheros! Who are they?

```r
filter(superhero_info, alignment == "neutral")
```

```
## # A tibble: 24 x 10
##    name  gender eye_color race  hair_color height publisher skin_color alignment
##    <chr> <chr>  <chr>     <chr> <chr>       <dbl> <chr>     <chr>      <chr>    
##  1 Biza… Male   black     Biza… Black         191 DC Comics white      neutral  
##  2 Blac… Male   <NA>      God … <NA>           NA DC Comics <NA>       neutral  
##  3 Capt… Male   brown     Human Brown          NA DC Comics <NA>       neutral  
##  4 Copy… Female red       Muta… White         183 Marvel C… blue       neutral  
##  5 Dead… Male   brown     Muta… No Hair       188 Marvel C… <NA>       neutral  
##  6 Deat… Male   blue      Human White         193 DC Comics <NA>       neutral  
##  7 Etri… Male   red       Demon No Hair       193 DC Comics yellow     neutral  
##  8 Gala… Male   black     Cosm… Black         876 Marvel C… <NA>       neutral  
##  9 Glad… Male   blue      Stro… Blue          198 Marvel C… purple     neutral  
## 10 Indi… Female <NA>      Alien Purple         NA DC Comics <NA>       neutral  
## # … with 14 more rows, and 1 more variable: weight <dbl>
```

## `superhero_info`
3. Let's say we are only interested in the variables name, alignment, and "race". How would you isolate these variables from `superhero_info`?

```r
superhero_info %>%
  select(name, alignment, race)
```

```
## # A tibble: 734 x 3
##    name          alignment race             
##    <chr>         <chr>     <chr>            
##  1 A-Bomb        good      Human            
##  2 Abe Sapien    good      Icthyo Sapien    
##  3 Abin Sur      good      Ungaran          
##  4 Abomination   bad       Human / Radiation
##  5 Abraxas       bad       Cosmic Entity    
##  6 Absorbing Man bad       Human            
##  7 Adam Monroe   good      <NA>             
##  8 Adam Strange  good      Human            
##  9 Agent 13      good      <NA>             
## 10 Agent Bob     good      Human            
## # … with 724 more rows
```

## Not Human
4. List all of the superheros that are not human.

```r
superhero_info %>% 
  select(name, alignment, race) %>% 
  filter(race != "Human")
```

```
## # A tibble: 222 x 3
##    name         alignment race             
##    <chr>        <chr>     <chr>            
##  1 Abe Sapien   good      Icthyo Sapien    
##  2 Abin Sur     good      Ungaran          
##  3 Abomination  bad       Human / Radiation
##  4 Abraxas      bad       Cosmic Entity    
##  5 Ajax         bad       Cyborg           
##  6 Alien        bad       Xenomorph XX121  
##  7 Amazo        bad       Android          
##  8 Angel        good      Vampire          
##  9 Angel Dust   good      Mutant           
## 10 Anti-Monitor bad       God / Eternal    
## # … with 212 more rows
```

## Good and Evil
5. Let's make two different data frames, one focused on the "good guys" and another focused on the "bad guys".

```r
good_guys <- filter(superhero_info, alignment == "good")
good_guys
```

```
## # A tibble: 496 x 10
##    name  gender eye_color race  hair_color height publisher skin_color alignment
##    <chr> <chr>  <chr>     <chr> <chr>       <dbl> <chr>     <chr>      <chr>    
##  1 A-Bo… Male   yellow    Human No Hair       203 Marvel C… <NA>       good     
##  2 Abe … Male   blue      Icth… No Hair       191 Dark Hor… blue       good     
##  3 Abin… Male   blue      Unga… No Hair       185 DC Comics red        good     
##  4 Adam… Male   blue      <NA>  Blond          NA NBC - He… <NA>       good     
##  5 Adam… Male   blue      Human Blond         185 DC Comics <NA>       good     
##  6 Agen… Female blue      <NA>  Blond         173 Marvel C… <NA>       good     
##  7 Agen… Male   brown     Human Brown         178 Marvel C… <NA>       good     
##  8 Agen… Male   <NA>      <NA>  <NA>          191 Marvel C… <NA>       good     
##  9 Alan… Male   blue      <NA>  Blond         180 DC Comics <NA>       good     
## 10 Alex… Male   <NA>      <NA>  <NA>           NA NBC - He… <NA>       good     
## # … with 486 more rows, and 1 more variable: weight <dbl>
```

```r
bad_guys <- filter(superhero_info, alignment == "bad")
bad_guys
```

```
## # A tibble: 207 x 10
##    name  gender eye_color race  hair_color height publisher skin_color alignment
##    <chr> <chr>  <chr>     <chr> <chr>       <dbl> <chr>     <chr>      <chr>    
##  1 Abom… Male   green     Huma… No Hair       203 Marvel C… <NA>       bad      
##  2 Abra… Male   blue      Cosm… Black          NA Marvel C… <NA>       bad      
##  3 Abso… Male   blue      Human No Hair       193 Marvel C… <NA>       bad      
##  4 Air-… Male   blue      <NA>  White         188 Marvel C… <NA>       bad      
##  5 Ajax  Male   brown     Cybo… Black         193 Marvel C… <NA>       bad      
##  6 Alex… Male   <NA>      Human <NA>           NA Wildstorm <NA>       bad      
##  7 Alien Male   <NA>      Xeno… No Hair       244 Dark Hor… black      bad      
##  8 Amazo Male   red       Andr… <NA>          257 DC Comics <NA>       bad      
##  9 Ammo  Male   brown     Human Black         188 Marvel C… <NA>       bad      
## 10 Ange… Female <NA>      <NA>  <NA>           NA Image Co… <NA>       bad      
## # … with 197 more rows, and 1 more variable: weight <dbl>
```
…
8. Among the bad guys, who are the male humans over 200 inches in height?

```r
filter(bad_guys, gender == "Male" & height > 200)
```

```
## # A tibble: 22 x 10
##    name  gender eye_color race  hair_color height publisher skin_color alignment
##    <chr> <chr>  <chr>     <chr> <chr>       <dbl> <chr>     <chr>      <chr>    
##  1 Abom… Male   green     Huma… No Hair       203 Marvel C… <NA>       bad      
##  2 Alien Male   <NA>      Xeno… No Hair       244 Dark Hor… black      bad      
##  3 Amazo Male   red       Andr… <NA>          257 DC Comics <NA>       bad      
##  4 Apoc… Male   red       Muta… Black         213 Marvel C… grey       bad      
##  5 Bane  Male   <NA>      Human <NA>          203 DC Comics <NA>       bad      
##  6 Dark… Male   red       New … No Hair       267 DC Comics grey       bad      
##  7 Doct… Male   brown     Human Brown         201 Marvel C… <NA>       bad      
##  8 Doct… Male   brown     <NA>  Brown         201 Marvel C… <NA>       bad      
##  9 Doom… Male   red       Alien White         244 DC Comics <NA>       bad      
## 10 Kill… Male   red       Meta… No Hair       244 DC Comics green      bad      
## # … with 12 more rows, and 1 more variable: weight <dbl>
```
…
10. Let's explore who the really "big" superheros are. In the `superhero_info` data, which have a height over 200 or weight over 300?

```r
superhero_info %>% 
  select(name, height,weight) %>% 
  filter(weight > 300 | height > 200)
```

```
## # A tibble: 65 x 3
##    name          height weight
##    <chr>          <dbl>  <dbl>
##  1 A-Bomb           203    441
##  2 Abomination      203    441
##  3 Alien            244    169
##  4 Amazo            257    173
##  5 Ant-Man          211    122
##  6 Anti-Venom       229    358
##  7 Apocalypse       213    135
##  8 Bane             203    180
##  9 Beta Ray Bill    201    216
## 10 Bloodaxe         218    495
## # … with 55 more rows
```
…
## Height to Weight Ratio
13. It's easy to be strong when you are heavy and tall, but who is heavy and short? Which superheros have the highest height to weight ratio?

```r
superhero_info %>% 
  mutate(height_weight_ratio = height/weight) %>% 
  select(name, height_weight_ratio) %>% 
  arrange(height_weight_ratio)
```

```
## # A tibble: 734 x 2
##    name        height_weight_ratio
##    <chr>                     <dbl>
##  1 Giganta                  0.0992
##  2 Utgard-Loki              0.262 
##  3 Darkseid                 0.327 
##  4 Juggernaut               0.336 
##  5 Red Hulk                 0.338 
##  6 Sasquatch                0.339 
##  7 Hulk                     0.387 
##  8 Bloodaxe                 0.440 
##  9 Thanos                   0.454 
## 10 A-Bomb                   0.460 
## # … with 724 more rows
```
…
14. How many superheros have a combination of accelerated healing, durability, and super strength?

```r
filter(superhero_powers, accelerated_healing == "TRUE" & durability == "TRUE" & super_strength == "TRUE")
```

```
## # A tibble: 97 x 168
##    hero_names agility accelerated_hea… lantern_power_r… dimensional_awa…
##    <chr>      <lgl>   <lgl>            <lgl>            <lgl>           
##  1 A-Bomb     FALSE   TRUE             FALSE            FALSE           
##  2 Abe Sapien TRUE    TRUE             FALSE            FALSE           
##  3 Angel      TRUE    TRUE             FALSE            FALSE           
##  4 Anti-Moni… FALSE   TRUE             FALSE            TRUE            
##  5 Anti-Venom FALSE   TRUE             FALSE            FALSE           
##  6 Aquaman    TRUE    TRUE             FALSE            FALSE           
##  7 Arachne    TRUE    TRUE             FALSE            FALSE           
##  8 Archangel  TRUE    TRUE             FALSE            FALSE           
##  9 Ardina     TRUE    TRUE             FALSE            FALSE           
## 10 Ares       TRUE    TRUE             FALSE            FALSE           
## # … with 87 more rows, and 163 more variables: cold_resistance <lgl>,
## #   durability <lgl>, stealth <lgl>, energy_absorption <lgl>, flight <lgl>,
## #   danger_sense <lgl>, underwater_breathing <lgl>, marksmanship <lgl>,
## #   weapons_master <lgl>, power_augmentation <lgl>, animal_attributes <lgl>,
## #   longevity <lgl>, intelligence <lgl>, super_strength <lgl>,
## #   cryokinesis <lgl>, telepathy <lgl>, energy_armor <lgl>,
## #   energy_blasts <lgl>, duplication <lgl>, size_changing <lgl>,
## #   density_control <lgl>, stamina <lgl>, astral_travel <lgl>,
## #   audio_control <lgl>, dexterity <lgl>, omnitrix <lgl>, super_speed <lgl>,
…
## `kinesis`
15. We are only interested in the superheros that do some kind of "kinesis". How would we isolate them from the `superhero_powers` data?

```r
superhero_powers %>% 
  select(hero_names, contains("kinesis")) %>% 
  filter_all(any_vars(.== "TRUE"))
```

```
## # A tibble: 112 x 10
##    hero_names cryokinesis electrokinesis telekinesis hyperkinesis hypnokinesis
##    <chr>      <lgl>       <lgl>          <lgl>       <lgl>        <lgl>       
##  1 Alan Scott FALSE       FALSE          FALSE       FALSE        TRUE        
##  2 Amazo      TRUE        FALSE          FALSE       FALSE        FALSE       
##  3 Apocalypse FALSE       FALSE          TRUE        FALSE        FALSE       
##  4 Aqualad    TRUE        FALSE          FALSE       FALSE        FALSE       
##  5 Beyonder   FALSE       FALSE          TRUE        FALSE        FALSE       
##  6 Bizarro    TRUE        FALSE          FALSE       FALSE        TRUE        
##  7 Black Abb… FALSE       FALSE          TRUE        FALSE        FALSE       
##  8 Black Adam FALSE       FALSE          TRUE        FALSE        FALSE       
##  9 Black Lig… FALSE       TRUE           FALSE       FALSE        FALSE       
## 10 Black Mam… FALSE       FALSE          FALSE       FALSE        TRUE        
## # … with 102 more rows, and 4 more variables: thirstokinesis <lgl>,
## #   biokinesis <lgl>, terrakinesis <lgl>, vitakinesis <lgl>
```
…
