Lab 9 Homework
…
colleges <- janitor::clean_names(colleges)

Which cities in California have the highest number of colleges?

colleges_by_city <- colleges %>% 
  group_by(city) %>% 
  summarise(number_of_colleges=n_distinct(instnm)) %>% 
  arrange(desc(number_of_colleges))
colleges_by_city

## # A tibble: 161 x 2
##    city          number_of_colleges
##    <chr>                      <int>
##  1 Los Angeles                   24
##  2 San Diego                     18
##  3 San Francisco                 15
##  4 Sacramento                    10
##  5 Berkeley                       9
##  6 Oakland                        9
##  7 Claremont                      7
##  8 Pasadena                       6
##  9 Fresno                         5
## 10 Irvine                         5
## #  with 151 more rows
…
The column COSTT4_A is the annual cost of each institution. Which city has the highest average cost? Where is it located?

Harvey Mudd College has the highest cost. It is located in Claremont, CA

highest_cost <- colleges %>% 
  select(instnm, city, costt4_a) %>% 
  arrange(desc(costt4_a))
highest_cost

## # A tibble: 341 x 3
##    instnm                                        city          costt4_a
##    <chr>                                         <chr>            <dbl>
##  1 Harvey Mudd College                           Claremont        69355
##  2 Southern California Institute of Architecture Los Angeles      67225
##  3 University of Southern California             Los Angeles      67064
##  4 Occidental College                            Los Angeles      67046
##  5 Claremont McKenna College                     Claremont        66325
##  6 Pepperdine University                         Malibu           66152
##  7 Scripps College                               Claremont        66060
##  8 Pitzer College                                Claremont        65880
##  9 San Francisco Art Institute                   San Francisco    65453
## 10 Pomona College                                Claremont        64870
## #  with 331 more rows
…
